CrystalBall Interaction Logs: STM Analysis
…
df$actions <- as.integer(lapply(raw, length))
df$unique.actions <- as.integer(lapply(lapply(raw, unique), length))

write.csv(df, "./data/clean.csv", row.names = F)

Explore sample action statistics by group.

library(tidyverse)

df %>% group_by(frame, train, time) %>% summarise(AvgActions=mean(actions),
                                            StdActions=sd(actions),
                                            AvgUnqActions=mean(unique.actions),
                                            StdUnqActions=sd(unique.actions))

## # A tibble: 40 x 7
## # Groups:   frame, train [?]
##    frame   train  time AvgActions StdActions AvgUnqActions StdUnqActions
##    <chr>   <chr> <dbl>      <dbl>      <dbl>         <dbl>         <dbl>
##  1  High Spatial   0.1   72.10526   34.68572     12.684211      3.873738
##  2  High Spatial   0.2   72.10526   34.68572     10.894737      4.293338
##  3  High Spatial   0.3   72.10526   34.68572      9.631579      3.269565
##  4  High Spatial   0.4   72.10526   34.68572      9.421053      3.790570
##  5  High Spatial   0.5   72.10526   34.68572      8.894737      3.125073
##  6  High Spatial   0.6   72.10526   34.68572     10.526316      4.599135
##  7  High Spatial   0.7   72.10526   34.68572      9.052632      4.116008
##  8  High Spatial   0.8   72.10526   34.68572      8.894737      4.280378
##  9  High Spatial   0.9   72.10526   34.68572      9.105263      2.726307
## 10  High Spatial   1.0   72.10526   34.68572      8.315789      4.164034
## # ... with 30 more rows
…
